// Jest Snapshot v1, https://goo.gl/fbAQLP

exports[`Snapshot for component Spinner should render correctly component Spinner 1`] = `
<div
  className="scssspinner"
>
  <WithStyles(LinearProgress)
    variant="query"
  />
</div>
`;
