// Jest Snapshot v1, https://goo.gl/fbAQLP

exports[`Snapshot for component Error should render correctly componentError 1`] = `
<div
  className="container"
>
  Sorry an error has occurred.
</div>
`;
